,Benchmark,P2DCU,P2DCUL1
0,ATAX,0.031146038,0.03093628
1,BICG,0.032932884,0.032937202
2,BS,0.005649688,0.005679536
3,FIR,0.000897589,0.000780238
4,FLW,0.019587854,0.014692361
5,FWT,0.000778221,0.000790644
6,KM,0.014621064,0.013825683
7,MT,0.000639715,0.000649534
8,PR,0.003943822,0.003944495
9,ReLU,0.000820997,0.000821009
10,SPMV,0.000661346,0.000665267
