,Benchmark,P2DCUL1,P2DCUL1freq
0,ATAX,0.03093628,0.022790972
1,BICG,0.032937202,0.021396534
2,BS,0.005679536,0.003582745
3,FIR,0.000780238,0.000516076
4,FLW,0.014692361,0.008975129
5,FWT,0.000790644,0.000580549
6,KM,0.013825683,0.010988949
7,MT,0.000649534,0.000486072
8,PR,0.003944495,0.002138961
9,ReLU,0.000821009,0.000446037
10,SPMV,0.000665267,0.000497002
